{
  "trackingRating" : 0,
  "markerImageHeight" : 527,
  "markerImageWidth" : 1280,
  "creatorToolVersion" : "2",
  "markerFileName" : "20160517201806.jpg",
  "amountOfRecognitionPoints" : 0,
  "itemSelectedForExport" : true,
  "recognitionRating" : 0
}